practica-najliyayaestevez
…
Asigna el valor NA a la columna Square.Meters de los apartamentos que tengan menos de 20 m^2

    df_madrid[which(df_madrid$Square.Meters < 20),"Square.Meters"] <- NA

Existen varios Barrios que todas sus entradas de Square.Meters son NA, vamos a eliminar del dataset todos los pisos que pertenecen a estos barrios.

    #Eliminamos barrios completos si todas sus entradas son de NA m2:

    df_madrid <- df_madrid |> group_by(Neighbourhood) |> filter(!all(is.na(Square.Meters))) 
    df_madrid

# A tibble: 4,901 × 13
# Groups:   Neighbourhood [38]
   Neighbourhood Accommodates Bathrooms Bedrooms  Beds Price Square.Feet
   <chr>                <int>     <dbl>    <int> <int> <int>       <int>
 1 Embajadores              2         1        1     2    50          NA
 2 Embajadores              5         1        2     4    95          NA
 3 La Latina                4         1        1     2    69          NA
 4 Embajadores              4         1        1     2    57          NA
 5 La Latina                2         1        1     1    59          NA
 6 La Latina               14         2        3    14   120          NA
 7 La Latina                2         1        1     1    89          NA
 8 Palacio                  5         3        3     3   192          NA
 9 La Latina                4         1        1     1   100          NA
10 Palacio                  5         2        2     2   100          NA
# ℹ 4,891 more rows
# ℹ 6 more variables: Guests.Included <int>, Extra.People <int>,
#   Review.Scores.Rating <int>, Latitude <dbl>, Longitude <dbl>,
#   Square.Meters <dbl>
…
